{
	"comments": {
		"lineComment": "//",
		"blockComment": [ "/*", "*/" ]
	},
	"brackets": [
		["{", "}"],
		["[", "]"],
		["(", ")"]
	],
	"autoClosingPairs": [
		{ "open": "{", "close": "}" },
		{ "open": "[", "close": "]" },
		{ "open": "(", "close": ")" },
		{ "open": "{=", "close": "=}" },
		{ "open": "\"", "close": "\"", "notIn": ["string"] },
		{ "open": "/**", "close": " */", "notIn": ["string"] }
	],
	"autoCloseBefore": ";:.,=}]) \n\t", // TODO: Make a better decision on what these should be
	"surroundingPairs": [
		["{", "}"],
		["[", "]"],
		["(", ")"],
		["{=", "=}"],
		["\"", "\""],
	],
	"folding": {
		"markers": {
			"start": "^\\s*//\\s*#?region\\b",
			"end": "^\\s*//\\s*#?endregion\\b"
		}
	},
	"wordPattern": "(-?\\d*\\.\\d\\w*)|([^\\`\\~\\!\\@\\#\\%\\^\\&\\*\\(\\)\\-\\=\\+\\[\\{\\]\\}\\\\\\|\\;\\:\\'\\\"\\,\\.\\<\\>\\/\\?\\s]+)",
	"indentationRules": {
		"decreaseIndentPattern": "^((?!.*?\\/\\*).*\\*\/)?\\s*[\\}\\]].*$",
		"increaseIndentPattern": "^((?!\\/\\/).)*(\\{[^}\"'`]*|\\([^)\"'`]*|\\[[^\\]\"'`]*)$"
	}
}