<?xml version="1.0" encoding="UTF-8"?>
<svg version="1.1" viewBox="0 0 982 982" xmlns="http://www.w3.org/2000/svg" xmlns:cc="http://creativecommons.org/ns#" xmlns:dc="http://purl.org/dc/elements/1.1/" xmlns:rdf="http://www.w3.org/1999/02/22-rdf-syntax-ns#" xmlns:xlink="http://www.w3.org/1999/xlink">
<metadata>
<rdf:RDF>
<cc:Work rdf:about="">
<dc:format>image/svg+xml</dc:format>
<dc:type rdf:resource="http://purl.org/dc/dcmitype/StillImage"/>
<dc:title/>
</cc:Work>
</rdf:RDF>
</metadata>
<g transform="translate(-20 -40.362)" fill="#fff" fill-rule="evenodd" stroke="#000" stroke-linecap="round" stroke-linejoin="round" stroke-width="21.366">
<path transform="matrix(1.2863 .0066772 -.0066772 1.2863 238.65 -203.57)" d="m584.68 367-96.945 170.48-196.11 1.2818-99.166-169.2 96.945-170.48 196.11-1.2818z" stroke-dashoffset="28.8" stroke-miterlimit="3.3"/>
<path transform="matrix(1.2863 .0066772 -.0066772 1.2863 238.65 313.68)" d="m584.68 367-96.945 170.48-196.11 1.2818-99.166-169.2 96.945-170.48 196.11-1.2818z" stroke-dashoffset="28.8" stroke-miterlimit="3.3"/>
<path transform="matrix(1.2863 .0066772 -.0066772 1.2863 -211.35 50.055)" d="m584.68 367-96.945 170.48-196.11 1.2818-99.166-169.2 96.945-170.48 196.11-1.2818z" stroke-dashoffset="28.8" stroke-miterlimit="3.3"/>
</g>
</svg>
